module gitlab.com/alexjomin/dem

go 1.14

require (
	github.com/armon/consul-api v0.0.0-20180202201655-eb2c6b5be1b6 // indirect
	github.com/coreos/bbolt v1.3.2 // indirect
	github.com/coreos/etcd v3.3.10+incompatible // indirect
	github.com/coreos/go-systemd v0.0.0-20190321100706-95778dfbb74e // indirect
	github.com/coreos/pkg v0.0.0-20180928190104-399ea9e2e55f // indirect
	github.com/dgrijalva/jwt-go v3.2.0+incompatible // indirect
	github.com/gorilla/websocket v1.4.0 // indirect
	github.com/grpc-ecosystem/go-grpc-middleware v1.0.0 // indirect
	github.com/grpc-ecosystem/go-grpc-prometheus v1.2.0 // indirect
	github.com/jonboulle/clockwork v0.1.0 // indirect
	github.com/mitchellh/go-homedir v1.1.0 // indirect
	github.com/prometheus/client_golang v0.9.3 // indirect
	github.com/soheilhy/cmux v0.1.4 // indirect
	github.com/spf13/cobra v1.2.1
	github.com/tmc/grpc-websocket-proxy v0.0.0-20190109142713-0ad062ec5ee5 // indirect
	github.com/ugorji/go v1.1.4 // indirect
	github.com/xiang90/probing v0.0.0-20190116061207-43a291ad63a2 // indirect
	github.com/xordataexchange/crypt v0.0.3-0.20170626215501-b2862e3d0a77 // indirect
	go.etcd.io/bbolt v1.3.2 // indirect
	gopkg.in/resty.v1 v1.12.0 // indirect
)
